{
  "development": {
    "username": "admin",
    "password": "password",
    "database": "journal",
    "host": "127.0.0.1",
    "dialect": "postgres",
    "operatorsAliases": false
  },
  "production": {
    "use_env_variable": "DATABASE_URL"
  }
}
